<?xml version="1.0" encoding="UTF-8" standalone="no"?>
<!-- Uploaded to: SVG Repo, www.svgrepo.com, Generator: SVG Repo Mixer Tools -->

<svg
   width="1000.5"
   height="300"
   viewBox="0 0 20.01 6"
   fill="none"
   version="1.1"
   id="svg8"
   sodipodi:docname="packer.svg"
   inkscape:version="1.1.2 (0a00cf5339, 2022-02-04)"
   xmlns:inkscape="http://www.inkscape.org/namespaces/inkscape"
   xmlns:sodipodi="http://sodipodi.sourceforge.net/DTD/sodipodi-0.dtd"
   xmlns="http://www.w3.org/2000/svg"
   xmlns:svg="http://www.w3.org/2000/svg">
  <defs
     id="defs12" />
  <sodipodi:namedview
     id="namedview10"
     pagecolor="#ffffff"
     bordercolor="#666666"
     borderopacity="1.0"
     inkscape:pageshadow="2"
     inkscape:pageopacity="0.0"
     inkscape:pagecheckerboard="0"
     showgrid="false"
     width="300px"
     inkscape:zoom="0.43771041"
     inkscape:cx="17.134616"
     inkscape:cy="712.80005"
     inkscape:window-width="1920"
     inkscape:window-height="1019"
     inkscape:window-x="1920"
     inkscape:window-y="25"
     inkscape:window-maximized="1"
     inkscape:current-layer="svg8" />
  <g
     fill="#02a8ef"
     id="g6"
     transform="matrix(0.375,0,0,0.375,-0.961426,0.00304398)">
    <path
       fill-rule="evenodd"
       d="M 3,1.956 8.3,4.953 V 16 L 3,13.003 Z"
       clip-rule="evenodd"
       id="path2" />
    <path
       d="M 10.925,3.247 5.163,0 v 2.252 l 3.92,2.216 v 6.764 l 1.843,1.036 C 12.066,12.912 13,12.533 13,11.41 V 6.447 C 12.999,5.332 12.063,3.893 10.925,3.247 Z"
       id="path4" />
  </g>
</svg>
